<?xml version="1.0" encoding="UTF-8" standalone="no"?>
<!-- Created with Inkscape (http://www.inkscape.org/) -->

<svg
   xmlns:dc="http://purl.org/dc/elements/1.1/"
   xmlns:cc="http://creativecommons.org/ns#"
   xmlns:rdf="http://www.w3.org/1999/02/22-rdf-syntax-ns#"
   xmlns:svg="http://www.w3.org/2000/svg"
   xmlns="http://www.w3.org/2000/svg"
   xmlns:sodipodi="http://sodipodi.sourceforge.net/DTD/sodipodi-0.dtd"
   xmlns:inkscape="http://www.inkscape.org/namespaces/inkscape"
   width="1000"
   height="1000"
   viewBox="0 0 1000 1000"
   version="1.1"
   id="svg8"
   sodipodi:docname="square-bust-_placeholder.svg"
   inkscape:version="0.92.2 5c3e80d, 2017-08-06">
  <metadata
     id="metadata14">
    <rdf:RDF>
      <cc:Work
         rdf:about="">
        <dc:format>image/svg+xml</dc:format>
        <dc:type
           rdf:resource="http://purl.org/dc/dcmitype/StillImage" />
      </cc:Work>
    </rdf:RDF>
  </metadata>
  <defs
     id="defs12" />
  <sodipodi:namedview
     pagecolor="#ffffff"
     bordercolor="#666666"
     borderopacity="1"
     objecttolerance="10"
     gridtolerance="10"
     guidetolerance="10"
     inkscape:pageopacity="0"
     inkscape:pageshadow="2"
     inkscape:window-width="1685"
     inkscape:window-height="973"
     id="namedview10"
     showgrid="false"
     inkscape:zoom="0.96085786"
     inkscape:cx="492.70655"
     inkscape:cy="-51.431687"
     inkscape:window-x="-1"
     inkscape:window-y="0"
     inkscape:window-maximized="0"
     inkscape:current-layer="svg8" />
  <rect
     style="fill:#e00122;fill-opacity:1"
     width="1000"
     height="1000"
     x="0"
     y="0"
     id="bg" />
  <path
     style="fill:#dee2e6;fill-opacity:1"
     d="m 207.56863,999.99985 c 0,0 2.61143,-6.56149 5.54162,-9.30157 5.48553,-5.12958 10.98603,-8.62262 18.02963,-11.44955 15.51708,-6.22783 31.53313,-15.66652 38.62246,-22.7613 4.99359,-4.99736 7.53312,-9.11803 12.37878,-20.08562 2.06899,-4.68298 5.02715,-11.32308 6.57358,-14.75572 1.54643,-3.43272 3.73508,-9.49191 4.86365,-13.46502 2.69888,-9.50151 3.7669,-12.11619 9.30852,-22.7873 5.85041,-11.26587 6.45354,-12.99001 7.09342,-20.27649 0.61455,-6.99598 -0.17235,-30.27092 -1.45913,-43.15457 -0.49965,-5.00296 -0.90179,-14.98991 -0.90867,-22.5606 -0.0151,-14.0123 -0.74457,-22.11047 -2.97933,-32.97238 -1.64553,-7.99763 -3.1082,-12.10544 -7.60803,-21.3671 -2.15887,-4.44344 -5.47979,-12.52241 -7.37983,-17.95328 -3.2349,-9.24639 -7.92681,-20.69314 -11.9099,-29.05618 -2.64143,-5.54608 -6.73232,-9.57891 -14.19393,-13.99241 -8.31557,-4.91868 -14.39834,-9.45978 -17.9353,-13.38966 -3.75987,-4.17744 -12.27908,-17.14386 -16.21243,-24.6757 -3.78996,-7.25715 -5.29051,-12.70027 -5.84988,-21.22 -0.63269,-9.63765 -1.25631,-12.77005 -4.83197,-24.27258 -4.2686,-13.73178 -6.64456,-22.92972 -7.56193,-29.27441 -0.64252,-4.44578 -0.56391,-6.88668 0.63496,-19.56873 0.75288,-7.96913 1.88772,-16.51585 2.52117,-18.99265 0.63345,-2.4768 3.15137,-8.68581 5.59536,-13.7977 5.12671,-10.7232 6.3103,-14.37142 6.3103,-19.45084 0,-5.28068 -1.41029,-9.94938 -5.1295,-16.98104 -1.80124,-3.40566 -3.78338,-7.7144 -4.40466,-9.57513 -1.93285,-5.78858 -4.12558,-16.73091 -5.41485,-27.02166 -0.68032,-5.43088 -1.76663,-12.70201 -2.41376,-16.15801 -2.6793,-14.30853 -2.98499,-18.95342 -2.0829,-31.64681 0.45884,-6.45717 1.23455,-15.10662 1.7237,-19.22086 0.48907,-4.11433 1.17717,-11.45266 1.52881,-16.30746 0.85645,-11.82259 2.77622,-26.48519 4.24441,-32.41731 0.81774,-3.30422 3.54732,-9.6697 8.61763,-20.09635 4.08143,-8.39312 8.39191,-18.00182 9.57891,-21.35259 1.18692,-3.35078 3.63606,-8.59344 5.44244,-11.65032 5.73823,-9.71067 7.24173,-14.81734 8.69571,-29.53444 1.00687,-10.19218 1.64999,-12.02804 6.43291,-18.36366 2.31753,-3.06989 6.01912,-8.81152 8.22584,-12.75916 5.56452,-9.95482 6.80678,-11.62681 12.08889,-16.27102 9.99481,-8.78762 14.69805,-14.0098 19.01253,-21.11032 3.7722,-6.20795 5.48742,-8.20331 17.9353,-20.86496 11.76657,-11.9687 14.71959,-14.63214 20.34708,-18.3521 8.26213,-5.46157 13.06702,-8.08751 19.15021,-10.46596 2.63315,-1.02962 10.30819,-4.52138 17.05565,-7.75952 8.0961,-3.88543 16.44012,-7.32102 24.53621,-10.10245 13.59095,-4.66938 16.45735,-5.81246 29.92686,-11.935224 10.2759,-4.67104 24.05621,-9.20171 32.49389,-10.68344 4.6882,-0.82326 8.55851,-0.90724 26.14896,-0.56769 11.35548,0.21922 23.85063,0.65764 27.76702,0.97338 29.18615,2.35571 33.12597,2.98848 46.46853,7.46359 4.37998,1.46902 11.08006,3.364464 14.88915,4.212054 3.80904,0.84753 9.61855,2.31466 12.90999,3.26038 3.29144,0.94563 8.78124,2.42328 12.19952,3.28365 7.8723,1.98153 9.94791,3.07079 19.67535,10.32521 9.85554,7.34998 15.34303,10.6331 25.22472,15.09166 4.25405,1.91939 8.96935,4.33935 10.47855,5.37766 1.50924,1.03839 7.79229,6.75553 13.96241,12.70481 18.09656,17.44894 24.93142,23.04453 34.55761,28.2918 6.68693,3.64505 10.29891,6.66943 14.11994,11.82289 5.17032,6.97315 8.13343,12.28135 11.97842,21.45812 4.97499,11.87361 8.45907,18.5057 13.99548,26.6406 3.08825,4.53785 5.64994,9.1203 6.86131,12.27379 3.37882,8.79632 6.91612,14.87856 12.3236,21.19037 7.11164,8.30098 8.6047,10.73061 13.46941,21.91892 6.40244,14.72489 6.95157,16.40141 8.29119,25.31301 0.68001,4.52417 2.09317,11.77111 3.14033,16.10433 1.54825,6.40683 1.90341,9.10829 1.90159,14.46146 -0.008,11.56271 -1.89792,75.44013 -2.30846,77.86084 -0.21732,1.28187 -1.07331,5.92796 -1.90204,10.32461 -1.36509,7.24286 -1.4806,9.04207 -1.22911,19.15019 0.36019,14.48005 1.09769,17.25437 8.47854,31.90087 7.52047,14.92358 7.75382,16.01556 7.3711,34.4979 -0.24227,11.69431 -0.56859,15.74899 -1.8641,23.15369 -0.86377,4.93712 -1.8517,13.42004 -2.19534,18.85092 -0.34356,5.43088 -0.89102,11.75947 -1.21644,14.06347 -0.32542,2.304 -0.84733,8.76722 -1.15986,14.36266 -0.31257,5.59544 -0.97024,12.43064 -1.46169,15.18932 -1.5207,8.53621 -5.68082,22.22445 -8.68449,28.57496 -5.61573,11.87316 -9.72699,16.31947 -19.16734,20.72919 -18.97384,8.86292 -19.16383,8.97502 -24.24325,14.30007 -7.64421,8.01396 -11.38073,15.7914 -16.29971,33.92693 -2.20788,8.14027 -2.21465,8.2018 -2.21476,20.13407 -1.2e-4,11.13094 0.1319,12.59739 1.8867,20.94554 1.03767,4.93719 2.45684,13.90276 3.15364,19.92355 2.28952,19.78356 6.09615,27.62343 18.35319,37.79898 6.96008,5.77814 7.83693,6.77593 13.69777,15.58692 2.73668,4.11424 7.29713,10.17351 10.13431,13.46494 2.83714,3.29145 7.15797,8.96475 9.60181,12.60723 3.18059,4.74051 6.36699,8.48247 11.21133,13.16583 6.93388,6.70345 8.08584,8.26167 17.50771,23.68139 2.63316,4.30934 7.34593,10.83847 10.47277,14.5093 3.12688,3.67083 7.94982,9.6316 10.71753,13.24626 12.21241,15.94923 19.17018,20.49479 41.67704,27.22772 10.37454,3.10352 14.28737,4.89516 20.3164,9.3027 9.79736,7.16235 14.605,10.11545 23.99939,14.74167 7.21285,3.552 11.20169,5.96976 15.85878,9.61262 13.2488,10.36361 20.05505,14.98114 26.86462,18.22564 3.7872,1.80449 8.2323,3.92745 9.87802,4.71783 1.64572,0.7903 4.48834,3.8332 4.48834,3.8332 z"
     id="head"
     inkscape:connector-curvature="0" />
</svg>
